[
  [
    {
      "employee": {
        "firstName": "Lokesh",
        "lastName": "Gupta",
        "website": "howtodoinjava.com"
      }
    },
    {
      "employee": {
        "firstName": "Brian",
        "lastName": "Schultz",
        "website": "example.com"
      }
    }
  ]
]