{
  "OrderConfirmation": {
    "OrderConfirmationHeader": {
      "OrderConfirmationReference": "OC543215",
      "OrderConfirmationIssuedDate": "2020-11-09",
      "SupplierParty": {
        "PartyIdentifier": "964070328",
        "NameAddress": {
          "Name": "L'industrie du papier",
          "Address1": "Rue internationale de Paris 96",
          "City": "Paris",
          "PostalCode": "75001",
          "Country": {
            "ISOCountryCode": "FR",
            "Value": "France"
          }
        }
      }
    },
    "OrderConfirmationLineItem": [
      {
        "OrderConfirmationLineItemNumber": 1,
        "Product": {
          "ProductIdentifier": [
            {
              "Agency": "Buyer",
              "ProductIdentifierType": "PartNumber",
              "Code": "982807715"
            },
            {
              "Agency": "Supplier",
              "ProductIdentifierType": "PartNumber",
              "Code": "63279196"
            }
          ],
          "ProductDescription": "CARTRIDGE PAPER A2 160GSM"
        },
        "PriceDetails": {
          "PricePerUnit": {
            "CurrencyValue": {
              "CurrencyType": "EUR",
              "Value": 51.48
            },
            "Value": {
              "UOM": "Ream",
              "Value": 1
            }
          }
        },
        "MonetaryAdjustment": {
          "AdjustmentType": "Tax",
          "MonetaryAdjustmentLine": 1,
          "MonetaryAdjustmentStartAmount": {
            "CurrencyValue": {
              "CurrencyType": "EUR",
              "Value": 772.2
            }
          },
          "TaxAdjustment": {
            "TaxType": "VAT",
            "TaxPercent": 20,
            "TaxAmount": {
              "CurrencyValue": {
                "CurrencyType": "EUR",
                "Value": 154.44
              }
            },
            "TaxLocation": "FR"
          }
        },
        "Quantity": {
          "Value": {
            "UOM": "Ream",
            "Value": 15
          }
        },
        "InformationalQuantity": [
          {
            "Value": {
              "UOM": "Kilogram",
              "Value": 300
            }
          },
          {
            "Value": {
              "UOM": "Sheet",
              "Value": 7500
            }
          }
        ],
        "LineBaseAmount": {
          "CurrencyValue": {
            "CurrencyType": "EUR",
            "Value": 926.64
          }
        }
      },
      {
        "OrderConfirmationLineItemNumber": 2,
        "Product": {
          "ProductIdentifier": [
            {
              "Agency": "Buyer",
              "ProductIdentifierType": "PartNumber",
              "Code": "532945937"
            },
            {
              "Agency": "Supplier",
              "ProductIdentifierType": "PartNumber",
              "Code": "157294183"
            }
          ],
          "ProductDescription": "Cumberland Envelope 458x324 C3 StripSeal Gold 100g BX250"
        },
        "PriceDetails": {
          "PricePerUnit": {
            "CurrencyValue": {
              "CurrencyType": "EUR",
              "Value": 75.39
            },
            "Value": {
              "UOM": "Box",
              "Value": 1
            }
          }
        },
        "MonetaryAdjustment": {
          "AdjustmentType": "Tax",
          "MonetaryAdjustmentLine": "1",
          "MonetaryAdjustmentStartAmount": {
            "CurrencyValue": {
              "CurrencyType": "EUR",
              "Value": 753.9
            }
          },
          "TaxAdjustment": {
            "TaxType": "VAT",
            "TaxPercent": 20,
            "TaxAmount": {
              "CurrencyValue": {
                "CurrencyType": "EUR",
                "Value": 150.78
              }
            },
            "TaxLocation": "FR"
          }
        },
        "Quantity": {
          "Value": {
            "UOM": "Box",
            "Value": 10
          }
        },
        "InformationalQuantity": [
          {
            "Value": {
              "UOM": "Kilogram",
              "Value": 37.098
            }
          },
          {
            "Value": {
              "UOM": "Unit",
              "Value": 2500
            }
          }
        ],
        "LineBaseAmount": {
          "CurrencyValue": {
            "CurrencyType": "EUR",
            "Value": 904.68
          }
        }
      }
    ]
  }
}